"plotID","leafMassPerArea","collectDate","vegSampled"
"KONA_054",40,2019-07-09 13:41:00,1
"KONA_059",35,2019-07-09 14:05:00,1
"KONA_048",40.7,2019-07-09 14:52:00,1
"KONA_057",66,2019-07-09 15:23:00,1
"KONZ_042",73,2017-05-30 14:08:00,1
"KONZ_043",55.2,2017-05-30 14:09:00,1
"KONZ_045",62.9,2017-05-30 14:10:00,1
"KONZ_046",52.9,2017-05-30 14:11:00,1
"DCFS_065",108,2019-08-08 13:45:00,1
"DCFS_062",99.7,2019-08-08 14:10:00,1
"DCFS_067",116.1,2019-08-08 14:40:00,1
"DCFS_063",76.7,2019-08-08 20:03:00,1
"WOOD_043",225,2016-06-27 16:42:00,1
"WOOD_044",109,2016-06-27 17:10:00,1
"WOOD_045",165.6,2016-06-27 17:30:00,1
"WOOD_042",112.9,2016-06-27 17:44:00,1
"STER_012",119.8,2017-07-24 16:55:00,1
"STER_011",99.9,2017-07-24 17:25:00,1
"OAES_044",70.1,2018-04-24 15:12:00,1
"OAES_043",89.6,2018-04-24 15:31:00,1
"OAES_045",92.9,2018-04-24 16:12:00,1
"OAES_042",83.2,2018-04-24 18:08:00,1
"MOAB_046",111.9,2017-09-09 17:00:00,1
"MOAB_045",96.9,2017-09-09 19:00:00,1
"MOAB_047",110.4,2017-09-09 21:00:00,1
"MOAB_044",96.1,2017-09-10 21:00:00,1
"JORN_042",171.8,2017-08-22 14:40:00,1
"JORN_044",89.6,2017-08-22 14:43:00,1
"JORN_047",108.5,2017-08-22 14:44:00,1
"JORN_045",123.1,2017-08-22 14:45:00,1
"TOOL_043",83.2,2017-07-20 17:22:00,1
"TOOL_041",75.5,2017-07-20 19:00:00,1
"TOOL_042",68.9,2017-07-21 18:00:00,1
"TOOL_044",74.4,2017-07-21 19:00:00,1
